<?xml version="1.0"?>
<svg xmlns="http://www.w3.org/2000/svg" xmlns:xlink="http://www.w3.org/1999/xlink" version="1.1" id="Layer_1" x="0px" y="0px" viewBox="0 0 238.804 238.804" style="enable-background:new 0 0 238.804 238.804;" xml:space="preserve" width="512px" height="512px" class=""><g><g>
	<g>
		<g>
			<path d="M194.956,67.829c-0.752-1.212-2.075-1.952-3.502-1.952H76.17c-1.427,0-2.75,0.74-3.502,1.952     c-0.752,1.214-0.82,2.73-0.181,4.007l8.235,16.469c0.7,1.395,2.123,2.276,3.683,2.276h12.352v24.704v86.459     c0,20.436,16.622,37.06,37.056,37.06c20.434,0,37.056-16.624,37.056-37.06v-86.459V90.581h12.352c1.56,0,2.983-0.881,3.683-2.276     l8.235-16.469C195.776,70.559,195.708,69.043,194.956,67.829z M162.633,131.754h-24.704v8.235h24.704v16.469h-12.352v8.235     h12.352v16.469h-24.704v8.235h24.704v12.348c0,15.893-12.931,28.824-28.821,28.824s-28.821-12.931-28.821-28.825v-82.342h57.642     V131.754z M180.674,82.346H166.75c-2.276,0-4.117,1.844-4.117,4.117v24.704h-57.642V86.463c0-2.274-1.842-4.117-4.117-4.117     H86.95l-4.117-8.235h101.96L180.674,82.346z" data-original="#000000" class="active-path" data-old_color="#000000" fill="#5D1FD5"/>
			<path d="M84.404,20.587C84.404,9.236,75.168,0,63.818,0c-11.35,0-20.587,9.236-20.587,20.587     c0,11.351,9.236,20.587,20.587,20.587S84.404,31.937,84.404,20.587z M63.818,32.938c-6.811,0-12.352-5.541-12.352-12.352     s5.54-12.351,12.352-12.351c6.811,0,12.352,5.541,12.352,12.352C76.17,27.398,70.629,32.938,63.818,32.938z" data-original="#000000" class="active-path" data-old_color="#000000" fill="#5D1FD5"/>
			<path d="M107.049,57.642c7.945,0,14.411-6.465,14.411-14.411c0-7.946-6.465-14.411-14.411-14.411s-14.411,6.465-14.411,14.411     C92.638,51.177,99.104,57.642,107.049,57.642z M107.049,37.056c3.405,0,6.176,2.771,6.176,6.176c0,3.405-2.771,6.176-6.176,6.176     s-6.176-2.771-6.176-6.176C100.873,39.827,103.644,37.056,107.049,37.056z" data-original="#000000" class="active-path" data-old_color="#000000" fill="#5D1FD5"/>
		</g>
	</g>
</g></g> </svg>
